<?xml version="1.0" encoding="utf-8"?>
<!-- Generator: Adobe Illustrator 21.0.0, SVG Export Plug-In . SVG Version: 6.00 Build 0)  -->
<svg version="1.1" xmlns="http://www.w3.org/2000/svg" xmlns:xlink="http://www.w3.org/1999/xlink" x="0px" y="0px"
	 viewBox="0 0 120 120" style="enable-background:new 0 0 120 120;" xml:space="preserve">
<path class="icon__octahedron" d="M60.3,10l43.3,25v50l-43.3,25L17,85V35L60.3,10z"/>
<path d="M31.8,76H29l1.4,10.7L31.8,76z M29,99.7h2.8L30.4,89L29,99.7z M42.7,89.8V87L32,88.4L42.7,89.8z M19,87v2.8l10.7-1.4L19,87z
	 M21.4,95.6l8.5-6.6L20,93.2L21.4,95.6z M35.2,98.9l2.4-1.4L31,89L35.2,98.9z"/>
<path d="M24,78.4l6.6,8.5L26.4,77L24,78.4z M23,97.3l2.3,1.5l4.6-9.8L23,97.3z M31,89l8.3,6.9l1.5-2.3L31,89z M21.5,81L20,83.3
	l9.8,4.6L21.5,81z M34.7,86l12.8-12.8L45.3,71L32.5,83.8c-0.6,0.6-0.6,1.6,0,2.3C33.1,86.7,34.1,86.7,34.7,86z M94,48.1L99.1,20
	L71,25.1c0,0,1.2,4.3,9.9,13S94,48.1,94,48.1z M65,42c0.4,3.2,1.3,6.4,2.6,9.4c1.9,4.4,3.7,7,4.9,8.3l4.3-4.3
	c-1.3-1.4-3.3-4.1-5.3-8.9c-1.2-2.7-2-5.5-2.6-8.4L65,42z M59,47c0.2,2,0.9,5.2,2.6,9.4c1.9,4.4,3.7,7,4.9,8.3l4.3-4.3
	c-1.3-1.4-3.3-4.1-5.3-8.9c-1.2-2.7-2-5.5-2.6-8.4L59,47z M74.3,33L71,36.3c0.2,2,0.9,5.2,2.6,9.4c1.9,4.5,3.7,7,4.9,8.3l4.3-4.3
	c-1.3-1.4-3.3-4.1-5.3-8.9c-0.9-2.1-1.6-4.2-2.2-6.4L74.3,33z M54,53c0.2,2,0.9,5.2,2.6,9.4c1.9,4.4,3.7,7,4.9,8.3l4.3-4.3
	c-1.3-1.4-3.3-4.1-5.3-8.9c-1.2-2.7-2-5.5-2.6-8.4L54,53z M48,59c0.2,2,0.9,5.2,2.6,9.4c1.9,4.4,3.7,7,4.9,8.3l4.3-4.3
	c-1.3-1.4-3.3-4.1-5.3-8.9c-1.2-2.7-2-5.5-2.6-8.4L48,59z M52.2,75.3c-1.5-2.2-2.8-4.5-3.7-6.9c-1.2-2.7-2-5.5-2.6-8.4L42,63.9
	c0,0,1,3.2,5.4,7.6C48.8,72.9,50.4,74.3,52.2,75.3z M83.8,47.7l2.7-2.7c-3-2.5-5.8-5.1-8.5-8c0.3,0.8,0.6,1.5,0.9,2.4
	C80.8,43.8,82.6,46.4,83.8,47.7z"/>
</svg>
