<?xml version="1.0" encoding="utf-8"?>
<!-- Generator: Adobe Illustrator 21.0.0, SVG Export Plug-In . SVG Version: 6.00 Build 0)  -->
<svg version="1.1" id="Layer_1" xmlns="http://www.w3.org/2000/svg" xmlns:xlink="http://www.w3.org/1999/xlink" x="0px" y="0px"
	 viewBox="0 0 24 24" style="enable-background:new 0 0 24 24;" xml:space="preserve">
<path d="M5,6.4L6.4,5l5.6,5.6L17.6,5L19,6.4L13.4,12l5.6,5.6L17.6,19L12,13.4L6.4,19L5,17.6l5.6-5.6L5,6.4z"/>
</svg>
