<?xml version="1.0" encoding="utf-8"?>
<!-- Generator: Adobe Illustrator 21.1.0, SVG Export Plug-In . SVG Version: 6.00 Build 0)  -->
<svg version="1.1" xmlns="http://www.w3.org/2000/svg" xmlns:xlink="http://www.w3.org/1999/xlink" x="0px" y="0px"
	 viewBox="0 0 24 24" style="enable-background:new 0 0 24 24;" xml:space="preserve">
<style type="text/css">
	.st0{fill:#FFFFFF;}
</style>
<polygon class="st0" points="13,7.2 13,8.5 17.1,8.5 17.1,9 13,9 13,9.8 17.1,9.8 17.1,10.3 13,10.3 13,11.1 17.1,11.1 17.1,11.6 
	13,11.6 13,12.4 17.1,12.4 17.1,12.9 13,12.9 13,13.7 17.1,13.7 17.1,14.2 13,14.2 13,15 17.1,15 17.1,15.6 13,15.6 13,17 18.2,17 
	18.2,7.2 "/>
<path class="st0" d="M5,17.1l7.6,1.3V5.7L5,7V17.1z M6.6,9.3L7.3,12c0.1,0.3,0.1,0.6,0.2,0.9c0.1-0.5,0.2-0.7,0.2-0.8l0.8-2.9h0.7
	l0.6,2.1c0.2,0.5,0.3,1,0.3,1.5c0.1-0.3,0.1-0.6,0.2-0.9l0.7-2.7h0.6l-1.2,4.2H9.8l-0.9-3.2C8.8,10,8.8,9.8,8.7,9.8
	c0,0.2-0.1,0.4-0.1,0.5l-0.9,3.2H7.2L6,9.3H6.6z"/>
</svg>
