<?xml version="1.0" encoding="utf-8"?>
<!-- Generator: Adobe Illustrator 21.1.0, SVG Export Plug-In . SVG Version: 6.00 Build 0)  -->
<svg version="1.1" id="Layer_1" xmlns="http://www.w3.org/2000/svg" xmlns:xlink="http://www.w3.org/1999/xlink" x="0px" y="0px"
	 viewBox="0 0 24 24" style="enable-background:new 0 0 24 24;" xml:space="preserve">
<style type="text/css">
	.st0{fill:#FFFFFF;}
</style>
<path class="st0" d="M5.7,18.2c-0.3,0-0.5-0.1-0.6-0.3C5,17.7,5,17.4,5,17.1c0.1-0.4,0.3-0.7,0.6-1c0.4-0.4,1.1-0.9,1.8-1.2
	c0.4-0.2,0.8-0.4,1.3-0.6c0.6-0.9,1.4-2.2,1.9-3.7c0.1-0.2,0.1-0.4,0.2-0.5c-0.2-0.4-0.3-0.8-0.4-1.1c-0.2-0.5-0.2-1-0.3-1.4
	c0-0.4,0-0.8,0-1.2c0.1-0.4,0.1-0.6,0.3-0.8c0.1-0.2,0.3-0.3,0.5-0.4C11.2,5,11.3,5,11.4,5c0.1,0,0.2,0,0.4,0c0.1,0,0.2,0.1,0.3,0.2
	L12,5.5l0.2-0.3c0.5,0.2,0.4,0.6,0.4,1.2l0,0.3c-0.1,0.8-0.3,2-0.7,3.3c0,0.1,0.1,0.1,0.1,0.2c0.3,0.6,0.7,1.2,1.3,1.9
	c0.3,0.3,0.5,0.7,0.9,1c0.5,0,1,0,1.4,0c0.5,0,0.9,0.1,1.4,0.2c0.5,0.1,0.8,0.3,1.1,0.4c0.4,0.2,0.7,0.5,0.8,0.9
	c0.2,0.4,0.2,0.8,0,1.1c-0.1,0.3-0.4,0.5-0.8,0.6c-0.3,0.1-0.7,0.1-1,0c-0.3-0.1-0.7-0.3-1.2-0.6c-0.5-0.3-0.9-0.7-1.4-1.2
	c-0.2-0.2-0.4-0.4-0.6-0.7c-0.3,0-0.7,0.1-1.2,0.2c-0.6,0.1-1.2,0.2-2,0.5c-0.4,0.1-0.8,0.2-1.1,0.4c-0.1,0.1-0.1,0.2-0.1,0.2
	c-0.7,1-1.4,1.9-2,2.4c-0.4,0.4-0.9,0.6-1.3,0.7C5.8,18.2,5.7,18.2,5.7,18.2z M8,15.5c-0.1,0-0.1,0.1-0.2,0.1
	c-0.9,0.4-1.4,0.9-1.6,1.1c-0.3,0.3-0.4,0.5-0.4,0.6c0,0.1,0,0.1,0,0.2c0,0,0,0,0,0c0.3,0,0.6-0.2,0.9-0.5C7,16.7,7.4,16.3,8,15.5z
	 M14.7,13.9c0.1,0.1,0.1,0.1,0.2,0.2c0.5,0.5,0.9,0.8,1.3,1.1c0.4,0.3,0.7,0.4,1,0.5c0.2,0.1,0.4,0.1,0.6,0c0.2-0.1,0.3-0.1,0.3-0.2
	c0-0.1,0.1-0.3,0-0.5c-0.1-0.2-0.3-0.4-0.5-0.5c-0.2-0.1-0.5-0.2-0.9-0.3c-0.4-0.1-0.8-0.2-1.2-0.2C15.1,13.9,14.9,13.9,14.7,13.9
	C14.7,13.9,14.7,13.9,14.7,13.9z M11.4,11c-0.4,1.1-1,2.2-1.5,3c0.1,0,0.2-0.1,0.3-0.1c0.9-0.3,1.5-0.4,2.1-0.5
	c0.3,0,0.5-0.1,0.7-0.1c-0.2-0.2-0.4-0.4-0.5-0.6C12.1,12,11.7,11.5,11.4,11z M11.5,5.8l-0.1,0c0,0-0.1,0-0.1,0
	c-0.1,0-0.1,0.1-0.2,0.1C11.1,6,11.1,6.2,11,6.4c0,0.3-0.1,0.7,0,1c0,0.4,0.1,0.8,0.3,1.3c0,0,0,0,0,0.1c0.2-0.9,0.4-1.6,0.4-2.2
	l0-0.3c0-0.2,0-0.4,0-0.5l-0.1,0C11.7,5.8,11.6,5.8,11.5,5.8z"/>
</svg>
